<?xml version="1.0" encoding="utf-8"?>
<!-- Generator: Adobe Illustrator 21.0.2, SVG Export Plug-In . SVG Version: 6.00 Build 0)  -->
<svg version="1.1" id="Layer_1" xmlns="http://www.w3.org/2000/svg" xmlns:xlink="http://www.w3.org/1999/xlink" x="0px" y="0px"
	 viewBox="0 0 512 512" style="enable-background:new 0 0 512 512;" xml:space="preserve">
<style type="text/css">
	.st0{fill:#CE4346;}
</style>
<g>
	<path class="st0" d="M282.8,92.8c0,16.7-13.5,30.2-30.2,30.2c-16.7,0-30.2-13.5-30.2-30.2c0-16.7,13.5-30.2,30.2-30.2
		C269.2,62.5,282.8,76.1,282.8,92.8L282.8,92.8z M282.8,92.8"/>
	<path class="st0" d="M420.7,329.8c0,16.7-13.5,30.2-30.2,30.2c-16.7,0-30.2-13.5-30.2-30.2c0-16.7,13.5-30.2,30.2-30.2
		C407.1,299.6,420.7,313.1,420.7,329.8L420.7,329.8z M420.7,329.8"/>
	<path class="st0" d="M144.8,329.8c0,16.7-13.5,30.2-30.2,30.2c-16.7,0-30.2-13.5-30.2-30.2c0-16.7,13.5-30.2,30.2-30.2
		C131.3,299.6,144.8,313.1,144.8,329.8L144.8,329.8z M144.8,329.8"/>
	<path class="st0" d="M428,172.4c0-20.7-16.8-37.5-37.5-37.5c-11.3,0-21.4,5-28.2,12.9l-74.2-43c1.3-3.8,2-7.8,2-12.1
		c0-20.7-16.8-37.5-37.5-37.5C231.8,55.2,215,72,215,92.7c0,4.2,0.7,8.2,2,12l-74.2,43c-6.9-7.8-17-12.9-28.2-12.9
		c-20.7,0-37.5,16.8-37.5,37.5c0,17.9,12.6,33,29.4,36.6l0.1,84.2C89.7,296.8,77,311.8,77,329.7c0,20.7,16.8,37.5,37.5,37.5
		c11,0,21-4.8,27.8-12.4l74.4,43c-1.2,3.7-1.8,7.5-1.8,11.6c0,20.7,16.8,37.5,37.5,37.5c20.7,0,37.5-16.8,37.5-37.5
		c0-4.1-0.6-7.9-1.8-11.6l74.4-43c6.9,7.6,16.8,12.4,27.8,12.4c20.7,0,37.5-16.8,37.5-37.5c0-18.2-13-33.4-30.2-36.8v-83.8
		C414.9,205.8,428,190.6,428,172.4L428,172.4z M390.4,149.3c12.7,0,23,10.3,23,23c0,12.7-10.3,23-23,23c-12.7,0-23-10.3-23-23
		C367.4,159.6,377.8,149.3,390.4,149.3L390.4,149.3z M252.5,69.7c12.7,0,23,10.3,23,23c0,3.9-1,7.6-2.7,10.9
		c-0.2,0.2-0.2,0.3-0.4,0.6l-0.2,0.5c-4,6.6-11.4,11.1-19.7,11.1c-12.7,0-23-10.3-23-23C229.5,80,239.8,69.7,252.5,69.7L252.5,69.7z
		 M91.6,172.4c0-12.7,10.3-23,23-23c12.7,0,23,10.3,23,23c0,12.7-10.3,23-23,23C101.9,195.4,91.6,185.1,91.6,172.4L91.6,172.4z
		 M114.6,352.8c-12.7,0-23-10.3-23-23c0-12.7,10.3-23,23-23c12.7,0,23,10.3,23,23C137.6,342.5,127.2,352.8,114.6,352.8L114.6,352.8z
		 M252.5,432.4c-12.7,0-23-10.3-23-23c0-12.7,10.3-23,23-23c12.7,0,23,10.3,23,23C275.6,422.1,265.2,432.4,252.5,432.4L252.5,432.4z
		 M281.1,385.2c-6.9-8.1-17.1-13.3-28.6-13.3c-11.4,0-21.7,5.1-28.6,13.3l-74.1-42.7c1.4-3.9,2.2-8.2,2.2-12.6
		c0-18.5-13.4-33.8-31-37l-0.1-83.6c17.6-3,31-18.5,31-37c0-4.2-0.7-8.3-2-12.1l74.2-43c6.9,7.9,17,12.9,28.3,12.9
		c11.3,0,21.4-5,28.2-12.9l74.2,43c-1.3,3.8-2,7.8-2,12.1c0,18.2,13,33.4,30.2,36.8v83.8c-17.2,3.4-30.2,18.6-30.2,36.8
		c0,4.5,0.8,8.7,2.2,12.6L281.1,385.2z M413.5,329.8c0,12.7-10.3,23-23,23c-12.7,0-23-10.3-23-23c0-12.7,10.3-23,23-23
		C403.2,306.8,413.5,317.1,413.5,329.8L413.5,329.8z M413.5,329.8"/>
	<path class="st0" d="M287.5,280v-26.2c4.4-4.2,6.9-10.1,6.9-16.3v-34.3c0-21-17.1-38.2-38.2-38.2h-7.4c-21,0-38.2,17.1-38.2,38.2
		v34.3c0,6.2,2.6,12.1,6.9,16.3V280c-8.3,4.3-28.3,15.3-47,30.6c-3.1,2.6-3.5,7.1-1,10.2c2.6,3.1,7.1,3.5,10.2,1
		c20.7-17,43.1-28.3,47.4-30.4c3-1.5,4.9-4.5,4.9-7.9v-33.1c0-2.4-1.2-4.7-3.2-6c-2.3-1.5-3.7-4.1-3.7-6.9v-34.3
		c0-13,10.6-23.7,23.7-23.7h7.4c13,0,23.7,10.6,23.7,23.7v34.3c0,2.7-1.4,5.3-3.7,6.9c-2,1.4-3.2,3.6-3.2,6v33.1
		c0,3.4,1.9,6.4,5,7.9c4.3,2.1,26.7,13.4,47.4,30.4c1.4,1.1,3,1.7,4.6,1.7c2.1,0,4.2-0.9,5.6-2.6c2.6-3.1,2.1-7.7-1-10.2
		C315.8,295.3,295.8,284.3,287.5,280L287.5,280z M287.5,280"/>
</g>
</svg>
