<svg xmlns="http://www.w3.org/2000/svg" width="44" height="56" viewBox="0 0 44 56">
  <defs>
    <style>
      .cls-1 {
        fill: #ca3d40;
        stroke: #ca3e41;
        stroke-linejoin: round;
        stroke-width: 1px;
        fill-rule: evenodd;
      }
    </style>
  </defs>
  <path class="cls-1" d="M617.249,1314.41a0.994,0.994,0,0,0-.031.16v2.78a0.737,0.737,0,1,0,1.473,0v-2.78a0.732,0.732,0,0,0-.025-0.12,1.427,1.427,0,0,0,.7-1.23,1.382,1.382,0,1,0-2.763,0A1.418,1.418,0,0,0,617.249,1314.41Zm0.473-15.16c-4.674,0-4.707,4.55-4.707,7.63h-2.089a2.15,2.15,0,0,0-2.115,2.17v11.04a2.152,2.152,0,0,0,2.115,2.18h14.058a2.152,2.152,0,0,0,2.116-2.18v-11.04a2.15,2.15,0,0,0-2.116-2.17h-2.556C622.428,1303.83,622.412,1299.25,617.722,1299.25Zm0,1.51c2.742,0,3.231,1.98,3.233,6.12h-6.468C614.49,1302.74,614.978,1300.76,617.722,1300.76Zm7.9,8.29v11.04a0.648,0.648,0,0,1-.643.66H610.926a0.648,0.648,0,0,1-.643-0.66v-11.04a0.655,0.655,0,0,1,.643-0.66h14.058A0.655,0.655,0,0,1,625.627,1309.05Zm11.105-15.71-11.8-12.11a0.761,0.761,0,0,0-.548-0.23H601.351a2.377,2.377,0,0,0-2.351,2.34v45.21a2.52,2.52,0,0,0,.77,1.73,2.466,2.466,0,0,0,1.755.72h33.123a2.316,2.316,0,0,0,1.645-.68,2.381,2.381,0,0,0,.707-1.64v-34.79A0.835,0.835,0,0,0,636.732,1293.34Zm-12.589-10.69,10.551,10.85H624.116C624.181,1286.98,624.184,1284.03,624.143,1282.65Zm11.337,46.03a0.847,0.847,0,0,1-.832.76H601.525a1,1,0,0,1-.681-0.26,0.983,0.983,0,0,1-.324-0.63v-45.21a0.831,0.831,0,0,1,.825-0.78h21.248c0.037,1.97.016,7.89-.024,11.71a0.807,0.807,0,0,0,.229.56,0.763,0.763,0,0,0,.549.23H635.48v33.62Z" transform="translate(-596 -1278)"/>
</svg>
