<svg xmlns="http://www.w3.org/2000/svg" width="41.5" height="41.5" viewBox="0 0 41.5 41.5">
  <defs>
    <style>
      .cls-1 {
        fill: #fff;
        fill-rule: evenodd;
      }
    </style>
  </defs>
  <path id="Forma_1" data-name="Forma 1" class="cls-1" d="M350.866,580.74c-0.143,0-.285.007-0.427,0.007a12.738,12.738,0,0,1-9.258-3.5c-2.61-2.609-3.791-6.347-3.44-10.7a9.307,9.307,0,0,0,3.486.7h0.02c5.118-.012,9.665-2.476,15.7-8.5,6.672-6.669,9.088-11.078,8.915-16.266a8.523,8.523,0,0,0-.71-3.177q0.646-.046,1.283-0.047a12.738,12.738,0,0,1,9.258,3.5c2.545,2.544,3.736,6.159,3.468,10.376a7.764,7.764,0,0,0-4.56-.83c-3.838.474-7.829,2.224-14.828,9.22-6.63,6.627-9.245,10.8-9.651,15.384A6.591,6.591,0,0,0,350.866,580.74Zm-9.638-15.86h0.014c3.737-.009,7.553-1.341,14.027-7.811,7.016-7.014,8.348-10.753,8.222-14.513a6.12,6.12,0,0,0-.833-2.925,33.849,33.849,0,0,0-24.519,24.2c-0.02.092-.034,0.182-0.052,0.273A7.216,7.216,0,0,0,341.228,564.88Zm33.66-10.232c-3.353.415-6.922,2.027-13.443,8.546-6.186,6.182-8.616,9.955-8.966,13.917a3.95,3.95,0,0,0,1.121,3.368c5.551-.915,11.456-4.134,16.321-9a31.657,31.657,0,0,0,8.811-15.313c0.035-.164.062-0.325,0.093-0.488A5.61,5.61,0,0,0,374.888,554.648Z" transform="translate(-337.688 -539.25)"/>
</svg>
