<svg xmlns="http://www.w3.org/2000/svg" width="8.344" height="26.407" viewBox="0 0 8.344 26.407">
  <defs>
    <style>
      .cls-1 {
        fill: #fff;
        fill-rule: evenodd;
      }
    </style>
  </defs>
  <path id="Forma_1" data-name="Forma 1" class="cls-1" d="M189.2,940.341h-4.8a1.216,1.216,0,0,0-1.2,1.2v4.2a1.216,1.216,0,0,0,1.2,1.2h4.8a1.216,1.216,0,0,0,1.2-1.2v-4.2A1.218,1.218,0,0,0,189.2,940.341Zm1.436-19.458a1.124,1.124,0,0,0-.835-0.357h-6a1.12,1.12,0,0,0-.834.357,1.1,1.1,0,0,0-.329.844l0.526,14.41a1.208,1.208,0,0,0,.384.845,1.188,1.188,0,0,0,.854.356h4.8a1.186,1.186,0,0,0,.853-0.356,1.213,1.213,0,0,0,.385-0.845l0.525-14.41A1.1,1.1,0,0,0,190.636,920.883Z" transform="translate(-182.625 -920.531)"/>
</svg>
