<svg xmlns="http://www.w3.org/2000/svg" width="55.813" height="50.219" viewBox="0 0 55.813 50.219">
  <defs>
    <style>
      .cls-1 {
        fill: #fff;
        fill-rule: evenodd;
      }
    </style>
  </defs>
  <path id="Forma_1" data-name="Forma 1" class="cls-1" d="M514.1,534.9l-0.345,3.07,1.817-2.728-0.78,3.5a7.226,7.226,0,0,1,1.215,5.115c2.157,6.822-.259,6.824-0.259,6.824-1.819.257-3.207-2.389-3.207-2.389a7.011,7.011,0,0,1-2.248-3.071c-2.165,1.791-.431,10.319-0.431,10.319,1.3,3.24-1.475,7.162-1.475,7.162s-0.951.259,0.348,0.427,5.366,4.092,5.366,4.092c4.413,1.789,4.413,10.49,4.413,10.49,0.778,3.325-.169,3.067-0.169,3.067-4.241-1.878-2.513-3.15-2.513-3.15a1.176,1.176,0,0,0,1.039-1.2c-1.382-.764-1.817-4.86-1.817-4.86-0.863-2.218-4.5-3.751-4.5-3.751-3.287-1.619-2.686.085-2.686,0.085,2.857,2.731,1.385,4.351,1.385,4.351l-0.778,6.394c-0.345,3.327-1.9,3.582-1.9,3.582-1.643,0-1.3-2.3-1.3-2.3a1.539,1.539,0,0,1,1.736-1.622,1.73,1.73,0,0,1,.605-1.788l-0.262-4.861c-1.473-1.789-4.416-5.714-4.416-5.714a1.073,1.073,0,0,0-1.732-.682c-5.63,3.581-15.671.937-15.671,0.937a8.671,8.671,0,0,1-1.558,4.777c-1.557,3.157-.086,4.944-0.086,4.944l6.41,4.861c1.988,1.7,1.3,3.073,1.3,3.073h-2.51c-2.078,0-.693-2.56-0.693-2.56-1.638-.428-7.1-4.348-7.1-4.348-2.511-.509-0.954-4.261-0.954-4.261,0-2.473-.862-2.048-0.862-2.048a21.143,21.143,0,0,1-2.512,4.007c-1.47,5.712,5.191,8.868,5.191,8.868,1.48,1.024.872,1.619,0.872,1.619h-2.335c-1.74,0-.954-1.619-0.954-1.619-1.9-.083-4.33-4.689-4.33-4.689-4.065-3.327-1.9-4.861-1.9-4.861a6.508,6.508,0,0,0,2.422-5.119c-5.454-5.2-4.064-10.487-4.064-10.487-1.478-.6-2.168,1.108-2.168,1.108-1.47,11.088-6.4,11.173-6.4,11.173-2.077-15.266,9.177-14.072,9.177-14.072,4.675-6.908,17.742-3.837,17.742-3.837a15.15,15.15,0,0,0,9.523-6.994c4.284-10.872,12.6-8.825,12.6-8.825Z" transform="translate(-463 -534.906)"/>
</svg>
