[
  {
    "nr":1,
    "name":"bet365",
    "bonus":"",
    "stars":5
  },
  {
    "nr":2,
    "name":"Pinnacle",
    "bonus":"100% iki 200€",
    "stars":5
  },
  {
    "nr":3,
    "name":"OlyBet",
    "bonus":"",
    "stars":4
  },
  {
    "nr":4,
    "name":"SBOBet",
    "bonus":"",
    "stars":4
  },
  {
    "nr":5,
    "name":"CBet",
    "bonus":"100% iki 200€",
    "stars":4
  },
  {
    "nr":6,
    "name":"WilliamHill",
    "bonus":"",
    "stars":4
  },
  {
    "nr":7,
    "name":"TonyBet",
    "bonus":"",
    "stars":3
  },
  {
    "nr":8,
    "name":"Orakulas",
    "bonus":"",
    "stars":3
  },
  {
    "nr":9,
    "name":"188Bet",
    "bonus":"",
    "stars":3
  },
  {
    "nr":10,
    "name":"10Bet",
    "bonus":"",
    "stars":3
  },
  {
    "nr":11,
    "name":"Bet-at-home",
    "bonus":"",
    "stars":3
  },
  {
    "nr":12,
    "name":"BWin",
    "bonus":"",
    "stars":3
  },
  {
    "nr":13,
    "name":"Coral",
    "bonus":"",
    "stars":3
  },
  {
    "nr":14,
    "name":"Ladbrokes",
    "bonus":"",
    "stars":3
  },
  {
    "nr":15,
    "name":"Sportingbet",
    "bonus":"",
    "stars":3
  },
  {
    "nr":16,
    "name":"Unibet",
    "bonus":"",
    "stars":3
  },
  {
    "nr":17,
    "name":"TopSport",
    "bonus":"",
    "stars":3
  },
  {
    "nr":18,
    "name":"888Sport",
    "bonus":"",
    "stars":3
  },
  {
    "nr":19,
    "name":"Interwetten",
    "bonus":"",
    "stars":2
  },
  {
    "nr":20,
    "name":"Marathonbet",
    "bonus":"",
    "stars":2
  },
  {
    "nr":21,
    "name":"1xBet",
    "bonus":"",
    "stars":2
  }
]